<mxfile host="app.diagrams.net" modified="2021-11-06T22:49:42.453Z" agent="5.0 (Windows NT 10.0; Win64; x64) AppleWebKit/537.36 (KHTML, like Gecko) Chrome/95.0.4638.69 Safari/537.36" etag="ekgsbl6SYQrh4I5AdFUG" version="15.7.0" type="gitlab">
  <diagram id="ZrIW9HJngm95qdcf-ZaE" name="Page-1">
    <mxGraphModel dx="1108" dy="450" grid="1" gridSize="10" guides="1" tooltips="1" connect="1" arrows="1" fold="1" page="1" pageScale="1" pageWidth="827" pageHeight="1169" math="0" shadow="0">
      <root>
        <mxCell id="0" />
        <mxCell id="1" parent="0" />
        <mxCell id="_qsZzKf1cISh2_41xar4-7" value="" style="edgeStyle=orthogonalEdgeStyle;rounded=0;orthogonalLoop=1;jettySize=auto;html=1;" parent="1" source="_qsZzKf1cISh2_41xar4-1" target="_qsZzKf1cISh2_41xar4-6" edge="1">
          <mxGeometry relative="1" as="geometry" />
        </mxCell>
        <mxCell id="_qsZzKf1cISh2_41xar4-12" value="" style="edgeStyle=orthogonalEdgeStyle;rounded=0;orthogonalLoop=1;jettySize=auto;html=1;" parent="1" source="_qsZzKf1cISh2_41xar4-1" target="_qsZzKf1cISh2_41xar4-11" edge="1">
          <mxGeometry relative="1" as="geometry" />
        </mxCell>
        <mxCell id="Z1IMNqczcf4ZeaxcrYwu-4" value="" style="edgeStyle=orthogonalEdgeStyle;rounded=0;orthogonalLoop=1;jettySize=auto;html=1;" edge="1" parent="1" source="_qsZzKf1cISh2_41xar4-1" target="Z1IMNqczcf4ZeaxcrYwu-3">
          <mxGeometry relative="1" as="geometry" />
        </mxCell>
        <mxCell id="_qsZzKf1cISh2_41xar4-1" value="Nombre BD&lt;br&gt;MesaAyuda" style="rounded=1;whiteSpace=wrap;html=1;" parent="1" vertex="1">
          <mxGeometry x="10" y="200" width="120" height="60" as="geometry" />
        </mxCell>
        <mxCell id="_qsZzKf1cISh2_41xar4-14" value="" style="edgeStyle=orthogonalEdgeStyle;rounded=0;orthogonalLoop=1;jettySize=auto;html=1;" parent="1" source="_qsZzKf1cISh2_41xar4-6" target="_qsZzKf1cISh2_41xar4-13" edge="1">
          <mxGeometry relative="1" as="geometry" />
        </mxCell>
        <mxCell id="_qsZzKf1cISh2_41xar4-6" value="&lt;span&gt;Colección&lt;/span&gt;&lt;br&gt;&lt;span&gt;Usuarios&lt;/span&gt;" style="whiteSpace=wrap;html=1;rounded=1;" parent="1" vertex="1">
          <mxGeometry x="160" y="70" width="120" height="60" as="geometry" />
        </mxCell>
        <mxCell id="Z1IMNqczcf4ZeaxcrYwu-2" value="" style="edgeStyle=orthogonalEdgeStyle;rounded=0;orthogonalLoop=1;jettySize=auto;html=1;" edge="1" parent="1" source="_qsZzKf1cISh2_41xar4-11" target="Z1IMNqczcf4ZeaxcrYwu-1">
          <mxGeometry relative="1" as="geometry" />
        </mxCell>
        <mxCell id="_qsZzKf1cISh2_41xar4-11" value="&lt;span&gt;Colección&lt;/span&gt;&lt;br&gt;&lt;span&gt;Ticket&lt;/span&gt;" style="whiteSpace=wrap;html=1;rounded=1;" parent="1" vertex="1">
          <mxGeometry x="270" y="200" width="120" height="60" as="geometry" />
        </mxCell>
        <mxCell id="_qsZzKf1cISh2_41xar4-13" value="&lt;span&gt;Documentos&amp;nbsp;&lt;/span&gt;&lt;br&gt;&lt;span&gt;{&lt;/span&gt;&lt;br&gt;&lt;span&gt;&lt;span style=&quot;white-space: pre&quot;&gt;	&lt;/span&gt;id : int,&lt;/span&gt;&lt;br&gt;&lt;span&gt;&lt;span style=&quot;white-space: pre&quot;&gt;	&lt;/span&gt;nombre : string,&lt;/span&gt;&lt;br&gt;&lt;span&gt;&lt;span style=&quot;white-space: pre&quot;&gt;	&lt;/span&gt;email : string,&lt;/span&gt;&lt;br&gt;&lt;span&gt;&lt;span style=&quot;white-space: pre&quot;&gt;	&lt;/span&gt;contrasegna : string-encriptado&lt;/span&gt;&lt;br&gt;&lt;span&gt;}&lt;/span&gt;" style="whiteSpace=wrap;html=1;rounded=1;align=left;" parent="1" vertex="1">
          <mxGeometry x="460" y="45" width="270" height="110" as="geometry" />
        </mxCell>
        <mxCell id="Z1IMNqczcf4ZeaxcrYwu-1" value="&lt;span&gt;Documentos&amp;nbsp;&lt;/span&gt;&lt;br&gt;&lt;span&gt;{&lt;/span&gt;&lt;br&gt;&lt;span&gt;&lt;span&gt;	&lt;/span&gt;&lt;span&gt;	&lt;/span&gt;id : int,&lt;/span&gt;&lt;br&gt;&lt;span&gt;&lt;span&gt;	&lt;/span&gt;&lt;span&gt;	&lt;/span&gt;titulo&amp;nbsp;: string,&lt;/span&gt;&lt;br&gt;&lt;span&gt;&lt;span&gt;	&lt;/span&gt;&lt;span&gt;	&lt;/span&gt;descripcion&amp;nbsp;: string,&lt;/span&gt;&lt;br&gt;&lt;span&gt;&lt;span&gt;	&lt;/span&gt;&lt;span&gt;	&lt;/span&gt;fecha_apertura&amp;nbsp;: fecha,&lt;br&gt;&lt;/span&gt;&lt;span&gt;	&lt;/span&gt;fecha_cierre&amp;nbsp;: fecha,&lt;br&gt;fecha_actualizacion : fecha&lt;br&gt;estados : Objeto&lt;br&gt;&lt;span&gt;}&lt;/span&gt;" style="whiteSpace=wrap;html=1;rounded=1;align=left;" vertex="1" parent="1">
          <mxGeometry x="460" y="180" width="280" height="150" as="geometry" />
        </mxCell>
        <mxCell id="Z1IMNqczcf4ZeaxcrYwu-6" value="" style="edgeStyle=orthogonalEdgeStyle;rounded=0;orthogonalLoop=1;jettySize=auto;html=1;" edge="1" parent="1" source="Z1IMNqczcf4ZeaxcrYwu-3" target="Z1IMNqczcf4ZeaxcrYwu-5">
          <mxGeometry relative="1" as="geometry" />
        </mxCell>
        <mxCell id="Z1IMNqczcf4ZeaxcrYwu-3" value="Colección&lt;br&gt;Estados" style="whiteSpace=wrap;html=1;rounded=1;" vertex="1" parent="1">
          <mxGeometry x="160" y="340" width="120" height="60" as="geometry" />
        </mxCell>
        <mxCell id="Z1IMNqczcf4ZeaxcrYwu-5" value="&lt;span&gt;Documentos&amp;nbsp;&lt;/span&gt;&lt;br&gt;&lt;span&gt;{&lt;/span&gt;&lt;br&gt;&lt;span&gt;&lt;span&gt;	&lt;/span&gt;id : int,&lt;/span&gt;&lt;br&gt;&lt;span&gt;titulo : string,&lt;/span&gt;&lt;br&gt;&lt;span&gt;descripcion : string,&lt;/span&gt;&lt;br&gt;&lt;span&gt;fecha_actualizacion : fecha&lt;/span&gt;&lt;br&gt;&lt;span&gt;}&lt;/span&gt;" style="whiteSpace=wrap;html=1;rounded=1;align=left;" vertex="1" parent="1">
          <mxGeometry x="460" y="360" width="280" height="130" as="geometry" />
        </mxCell>
      </root>
    </mxGraphModel>
  </diagram>
</mxfile>
